Unit 2: Rtutorial
…
student_id

subject

semester

FinalGradeCEMS

After selecting these columns, assign that to a new object with a name of “student_grade”.

student_grade<-sci|>
  select(student_id,subject,semester,FinalGradeCEMS)
student_grade

# A tibble: 603 × 4
   student_id subject semester FinalGradeCEMS
        <dbl> <chr>   <chr>             <dbl>
 1      43146 FrScA   S216               93.5
 2      44638 OcnA    S116               81.7
 3      47448 FrScA   S216               88.5
 4      47979 OcnA    S216               81.9
 5      48797 PhysA   S116               84  
 6      51943 FrScA   S216               NA  
 7      52326 AnPhA   S216               83.6
 8      52446 PhysA   S116               97.8
 9      53447 FrScA   S116               96.1
10      53475 FrScA   S116               NA  
# ℹ 593 more rows
…
Specific select

Now, we will make a specific selection.

Select all columns except subject and semester.

Assign to a new object with a different name.

Examine your data frame.

idGrade<-student_grade|>
  select(-c(subject,semester))
idGrade

# A tibble: 603 × 2
   student_id FinalGradeCEMS
        <dbl>          <dbl>
 1      43146           93.5
 2      44638           81.7
 3      47448           88.5
 4      47979           81.9
 5      48797           84  
 6      51943           NA  
 7      52326           83.6
 8      52446           97.8
 9      53447           96.1
10      53475           NA  
# ℹ 593 more rows
Checking the data frame:

Your Turn:

Select all columns except student_id and FinalGradeCEMS.

Assign to a new object with a different name.

Examine your data frame.

subxsem<-student_grade|>
  select(-c(student_id,FinalGradeCEMS))
subxsem

# A tibble: 603 × 2
   subject semester
   <chr>   <chr>   
 1 FrScA   S216    
 2 OcnA    S116    
 3 FrScA   S216    
 4 OcnA    S216    
 5 PhysA   S116    
 6 FrScA   S216    
 7 AnPhA   S216    
 8 PhysA   S116    
 9 FrScA   S116    
10 FrScA   S116    
# ℹ 593 more rows

Specific select

Select only the columns that start with Time

Assign to a new object with a different name.

Use view() function to examine your data frame.

time<-sci|>
  select(starts_with("Time"))
time

# A tibble: 603 × 3
   TimeSpent TimeSpent_hours TimeSpent_std
       <dbl>           <dbl>         <dbl>
 1   1555.           25.9           -0.181
 2   1383.           23.0           -0.308
 3    860.           14.3           -0.693
 4   1599.           26.6           -0.148
 5   1482.           24.7           -0.235
 6      3.45          0.0575        -1.33 
 7   1322.           22.0           -0.353
 8   1390.           23.2           -0.302
 9   1479.           24.7           -0.236
10     NA            NA             NA    
# ℹ 593 more rows
…
Let’s use filter () function for the missing data.

Filter the sci_classes data frame so rows with 

NA for points earned are removed.

Assign to a new object.

Use the glimpse() function to examine your data frame.

na<-filter(sci,Points_Earned != "NA")
na

# A tibble: 511 × 30
   student_id course_id     total_points_possible total_points_earned
        <dbl> <chr>                         <dbl>               <dbl>
 1      44638 OcnA-S116-01                   3531                2672
 2      47979 OcnA-S216-01                   4562                3090
 3      48797 PhysA-S116-01                  2207                1910
 4      52446 PhysA-S116-01                  2086                1719
 5      53447 FrScA-S116-01                  4655                3149
 6      53475 FrScA-S116-02                  1710                1402
 7      53475 FrScA-S216-01                  1209                 977
 8      54066 OcnA-S116-01                   4641                3429
 9      54282 OcnA-S116-02                   3581                2777
10      54342 OcnA-S116-02                   3256                2876
# ℹ 501 more rows
# ℹ 26 more variables: percentage_earned <dbl>, subject <chr>, semester <chr>,
#   section <chr>, Gradebook_Item <chr>, Grade_Category <lgl>,
#   FinalGradeCEMS <dbl>, Points_Possible <dbl>, Points_Earned <dbl>,
#   Gender <chr>, q1 <dbl>, q2 <dbl>, q3 <dbl>, q4 <dbl>, q5 <dbl>, q6 <dbl>,
#   q7 <dbl>, q8 <dbl>, q9 <dbl>, q10 <dbl>, TimeSpent <dbl>,
#   TimeSpent_hours <dbl>, TimeSpent_std <dbl>, int <dbl>, pc <dbl>, uv <dbl>
…
Filter for students in OcnA courses with grades greater than or equal to 60.

Arrange grades by section in descending order.

Assign to a new object.

Examine the contents using a method of your choosing.

OcnA<-sci%>%
  select(subject,section,TimeSpent_hours,FinalGradeCEMS)%>%
  filter(subject == "OcnA",FinalGradeCEMS>=60)%>%
  arrange(desc(section))
OcnA

# A tibble: 86 × 4
   subject section TimeSpent_hours FinalGradeCEMS
   <chr>   <chr>             <dbl>          <dbl>
 1 OcnA    02                 33.8           93.4
 2 OcnA    02                 26.4           64.8
 3 OcnA    02                 19.7           65.8
 4 OcnA    02                 16.2           94.6
 5 OcnA    02                 21.5           64.0
 6 OcnA    02                113.            93.9
 7 OcnA    02                 30.4           79.5
 8 OcnA    02                 26.4           79.1
 9 OcnA    02                 41.0           60.4
10 OcnA    02                 18.9           90.1
# ℹ 76 more rows
…
